56 143      Solucao = 1276
N0001 22002101221222111201020102112121022210100220021121021110221001022120111220222012221202011002000220100220202022222021121201110111212101112100121
N0002 12120100201221210102122221220102220020002221110020112021102010220222221111210120102100112211100202102120221120022122220200221122120211020212121
N0003 22101002202020002102011222102200200121010101222122200001112120020222112022002202012022112122201222100220100102011021111212222201112202202021010
N0004 11101210101012202222111100120101110200001210002022022100222001221100101210102101222011110220221221121000122220212222002202101021102220212200022
N0005 00021212010022211222121021122110012111012000101101220211012211220120021001120002122010211012220212022211222220121102201221200212222211202120122
N0006 22212102022101022100120222220122002122002121021121222000101020122011222211101021001212122200110000022012112012211102000122110102022012222022110
N0007 01001112010222101000211021222221002021122222212221121100201221011101222102212022122222221222022122020202122202111100221002211211221000210100011
N0008 12010200200012011000022211200012000110221022202100202012101200222222010210202111020101221001022221022120111112001000200111202200201121021112221
N0009 01100212111020220111002222111011120122122100211022120121001202220120212212110121222110000002011221222022020221021100221111201012010000210210021
N0010 21001201111120010002121200201000121212201100221200212121000122022002220000020021100222120210222022220200111002201210112221220112120121120010111
N0011 02122210222222121112222212221121220000220010221022112212111120211202222202020222011220202222212201202002121122001210002022112101011201022121211
N0012 10210221212120201221102122201222200112100112012210102000121002220201221200210122020022110202220212002100000020021101020112012101021021012220122
N0013 22020002211222200102201110222220222202212012201001212002221021000202222212021220210021120220112221111222122022100010011220111221222201021222112
N0014 12112201002110211221022220222100102202000102111011010202021020020011212221222101120120122020021201110000101220100212002222200202212022202100102
N0015 02002100211121222211202200120011110012101221001002200002110120122222120111202022121112202012121202021001001001001101000021000222121101111112001
N0016 00120101210122021002112122001022222022102022221120211211221011210201221202122001122021202122222122010011020121121201112100211120222121112202201
N0017 12022020200101201212021200210001112200012122121212112211001212100200212222111210021221102010212011011021122021210002111020222022000002012012112
N0018 20210201211122021201112102102101220012012211120201222220110012020222202212012222221221122022220220012211200212022220012011002111222112221212201
N0019 22112011202010200211110221012020100021222211011222110120002101220021121221012200202002020022201221122222221012110122022211120220201100002012110
N0020 01222200221202221222122220211120112202220220002102011011220211212112210021222110212010000210222221000101120010120010120022101210101120221221121
N0021 22021121202122020220122020110002102202101002212122121202210101211001220210022101010122111022111111102000220121112022110211022211112122110211021
N0022 12010200101202112022112122012222101002001211120001002020121000222212211210012122111221122212101122122011022021201202102002120022112021221121022
N0023 20111222220102000020201011202012000002112200002111202022111112200222022102210100001212022200221100222010022210220211111212112220210212021100011
N0024 01021020011210210102211222202122202221012220101220201222121020121101220012222112012010200100201221222011120220020111001201211121002202222222211
N0025 10002201202102011002201010202001121120211100012201201010212210110222110020210200220211202101202000120100222110120120102111021211122020111111200
N0026 02020120220011210211022121022102011202101112200022210202122201222222010102022112220200000202002201222111011000112021001201220010101011222212110
N0027 21021220221212121002222121122110102110211220000212121221022110200100100221220221110122011102112102212100221122002221121210022022120102112211222
N0028 11010201012212111101000221202022120102210122202200102012102120110011221012221220221002012120012110011011221110210200002012121010220200210222222
N0029 02220202111221002122110200112212110110222101210222211210212112222220001121200202021222010110200210102102022020102110200111202021120210220021222
N0030 02102022012201121122202111211211200020211000201202201202210121012012120022221212221221001010202002011002122211122020000202122102112022112002122
N0031 01021202222222120012010020020021011022222000020210201020101222112020022112120112000202010122012212201221122221000102021102022220012120121022222
N0032 21202211000010222202120020102000211210212011020021021222010111021111121121211112201200010022022222222110211202221202020212010211020112222012111
N0033 01200101200201112011222210002222101222122011110221200120202012222120000210101110122201001220202202121002020012022122112221201221012221112121110
N0034 12210221022110212122000122010112220120102011011120122121120200122110220110222212000010021020120100001220012101012222220222012012101222021012121
N0035 22102002101012012000121011200001021011111102221201122022221111201210001120212202120120120200022020200102111012112112122121002010211010112010222
N0036 00012212201212220120022001201122221122010102220222202012101221101101020202122212212201001222112212021012120212011002212201020120002001210212000
N0037 11212000020002100020121220222012202212101011220022020021222121021000001220021202211010021220201110220221120012100121220222211222210010120220221
N0038 12221201021210201201112020121010122112210111222111012010100022210020120210121121012111122002111221201002122121111201222022201211121221122102100
N0039 21102100021110111220002221220210021120022221222220120222110121121010120221200022220122121020000222111001200100112002211002012222121020102010012
N0040 02110220020100022000002102211212210201111121010110120111101201112220101012101121222120121122121022212110222212201122112100122202202102111001021
N0041 22221212221221102100222220021121122100022202011210221102111220011211201022212202011200100101110022000222020020112010120122202011220121111022012
N0042 12121101100220022012210002220112220121021020010200020101211101022120122022020001101121010012020220000021000002121021012222011200110221022202122
N0043 02212122020222121121012201021201221101000221020222211022022122210100102122221121211112120120121200202202002111022210112202220122222222001222222
N0044 11000211022220120002100102022212221212200010222222000122220020022201012100111222200202001220220220212102202200120110001122121002120022212012121
N0045 22011202120220222012201211212120020101021010202202012222202211102000111222002211022010221012002012120220021020022111210110121021212122021000221
N0046 01211201201222200021202101022211021221101100210211212000102022120121101022001011110212011000021020222221100221221210202221220121211210210210220
N0047 02122100120211120001120210202100202222101111102221121110220002221222212210200212201210212210212122012220022010022021020200022220021221012022211
N0048 22212000202100022120202122100020221202222022000020022011021021212122221222012000000212222002102012212211022021020002121021122102212120112002222
N0049 21222222212000111121212200220001122211000101112201002221100120121102202020000000112221221102021120112210022220220222122121112222212202102012000
N0050 21002121100211112112020222011000021012001100121000220212012212022220200211020020110122122101200101220210002011212202210202102210111121102121200
N0051 20102021002120121010202220000111212001022222102201121212211101202111121201110101102011102111012012202221000201010102221212111111200000202122210
N0052 10112010201202021100202210120012210011100022200100110011122022222110210011122022122210220202100112222221120221202101201121212212022021100120122
N0053 12112212201212021222222211002121222211021110222021201122110012121210010221102012212001210000121122122111021202101020220022212121102222112202110
N0054 12220020201112201012010101122211100200202211201201202222102221020011222002022020122012220100122101202201210120000000220220211021122121120211102
N0055 20010122121212012202000022222210221111012110222100210201120022011202101201121011022200121121222211222210111220221102021201210122022201012222010
N0056 10022201211110021011012212221001221212201212222020221010002011002202020002221022002010212121202020120120220020222212211211221110202211002202222
