64 147 
N0001 220021012212222110010201021121220222221210022002120102111022100202221201112202222212221202221100202202201022220202022222022101201121211121221211121
N0002 220121122022122020122122121021222212201222220020002221110020112022112201222222222221112021212010210012021211202222102120221120022122220222022112212
N0003 022112202121212221212202202020002212201122210220020012122212202202212220002211121202222222211202222022020120221121222012221220222212201020211221211
N0004 012222201112202202021010111221210101221220222211121222120102111220000122020222022022122022222020211001012101021012222211112222022202112122222212222
N0005 021222200220210102211222202122000220022212122210222221202212212221021100121110120002121101220211012212020120222100120220021220102110122202120222112
N0006 222201221122201222022022022221120212012222212102022101222210012022222020200212200212122211212222200101020122221202221110102202012202022001100220022
N0007 020112012211102000122121210202201222202211022102220100102221012222021102122222102220211222222122211221120201222121201220221022200221222222212220222
N0008 020202021222222111100221002211211221000210100021100212200200012011022002221120220120022211222102220221222222222122121200222222010210202112122010122
N0009 100102222102212011111200100022201112022002021012221112221021120212210122022011122222222112122110012220210021102212221212202002220120220212112212122
N0010 212120000020112212220220202210211002221110021212010220021021222221210020011111202210022212200020100012121220110022120021212100221220220022200000200
N0011 221120222120212222202222020011100220201011222202011212020112222212211212212221022222212111222221222112122000222200212221222212022011112021120222220
N0012 202022201122020222221222212020021211220012100222222211212210210010222012121122202221212202220122112221222012222001121220112012210102000122120222222
N0013 012212222221020202220221102022202120222100000020222110102011201210122210221212220122220200022112222001022011102222202222022120122010012120022221221
N0014 222202022222120212202100211202201202211112222022222202002122212020121021222202122122212012112222122021102112212222220222212010220200221021211211021
N0015 222220212220222002001222122210112012012202022212021112000212122221022212002222202220221202220221201020200210021200122221120220012001121120121020212
N0016 201220220220022102202220222212221112022222121112222201212120202100100100122221101000021000222121101111120001001201012102020210022101220222122222202
N0017 210202222112021122102101201022220212021220011220212021222221220122012122012112120111210021112022212211020220112022020202212212012120212022210001112
N0018 200012122121220210221120121210020022022211202120212221122021221201101212220022222010002111020222022022220222020012112202102020111220212011121021021
N0019 012200200202111202012222201100120202222222220012222222021202022220220221221200021202222001201122022110222102212122020212001120222102002211112221221
N0020 222222100021222211011222110120002101220222210122101222202020022220222220122120222222101211012202221112022020211202202020112202022200221202221222122
N0021 222221112011220222022022021020110120202112121202202022022110212012200021222222221200202120001012001020002210122121011202212221012202112120212222202
N0022 201220222211200210222222122120222012212120221021220110012202100221010101222111222111111122222220220121112022121221102222110012211021122211201020010
N0023 122222100221122020122221010022222121112000122020201210002222202120100121221120211222201011222022211022021222120212222222212022221120212211210222011
N0024 122222010222000202010112022212022000212022200022110020221112102002220221022101022001212222220022211222222010022210220211111212210220210212021102201
N0025 122122210200112102101022210222022022022210202202021220202022122022012211212222012222112221201020021202012212220111202222022211122221201211122120222
N0026 222222222111000220120210202112022010102020011211202211120012222202210102202102112222110222021020022021120210120200012221002221101222120102111021211
N0027 122020111111222002020120222201122122112222201022102221120212211202000222122202122201222222010102022210220200000202002202022121122102001120210221201
N0028 220010101011222212201222022122022121212122022221211221122102110211220220021212122102221022001001220221220221121220201110211212222121002221020222222
N0029 101210222202212010211221122211010201012212201112100022200202212012222202122202200102012102120211202102101222122022122222012120012211201122120211102
N0030 122202200201212101222222200210222222022202021112210022021102001122121122211222212212102222112102121202222200011212220202021222010110200221210210222
N0031 220222102110200211002021120210220222122222221220220202011211222222111211211200020221020020120220120222121210120121200222212122212210010102022222202
N0032 112021222111220200220222212221221122222112002122012221202222222120020010020022202101102222222002220212220122201012221120200221121202100002022212212
N0033 201221222212220022210220102021102022222201212012102222222002211000010222222212022201022200211210212011020021021222010111022001101121211112201222001
N0034 002202222222212122112022212020202120212211020112222012111221200101200201112011222221200222210122212201111022202201202222221222212002202101221110122
N0035 201001220202202121002020221222221221122212020210202220101211101221222210221122212122002212201011222012010201102110012212112022201222112220211222221
N0036 200001002122201201000012200121010122222202220200121012220210121212210202221010120120001221221000002122212111111022212222102022222111002010220112021
N0037 220220012221202000220202001021211212112120122121002021221101011222102220001221220121222012002200120112222112201221022202222020121012211011010202222
N0038 122220220201220122211221202122201202122211002212201020122202220221210212000112120022020002100020201220222012202212101012022222220202221222121021000
N0039 001220021202211010021220201110220221120020100121220222211222210010120220221122212221022010201202110020121021212212022021112221112212010100022210222
N0040 012022121211212212111122220211122122210021221212110012220222012111220211221022122221102122002111021102000222122021002112022222212222202002221102011
N0041 221210120221200022222220212102022220222121120120010011202222110022212222121020102010222002110220020100022220000210221121221020111112102121101201112
N0042 122022121022020210121011212221201211221212222212110222212201122112202012220220210211122010212222201222122110210022222220221011221002222202011210221
N0043 122211122022200112021222212202011202210012212102022002222222200202100101222122202012022212211112220121212110110022002201221000222012022012102212200
N0044 102000201012111012222120122022020001122112212212012022222000002212002202121021012222222100021122210222222122222220122222022212210101220102120122110
N0045 100022102022221102202212221021201021222211220211001222120121200202202220221112222122120222222012222222202212222221102202110222202002202212010202221
N0046 222121220001022222222001222200200222010121001120222002020012222220220212102202200200112200112212100212002221201212122011202120220222012201221012120
N0047 022210102122102022222012222202211212200221210220022120222010221012002221212022002102002211121011221210212121220212200221012112012012222002221202101
N0048 022211222122201211002102120120220122202212012211210220010111102200110000210222222221100221221210222222122012121121222202221222002122100120211122222
N0049 011222210202100202222101111102221201110222200222122221221020222122221210212210212122020222202201220220210222222002222002122101202221202212000202100
N0050 022120202122100222022120222202200220222022011021022012202221222020022022002122220222202201221221122220210200022010211221022121201120022222122222221
N0051 200011112121220022000112221100010121020202022221020120121102202020000002211222122110222211201202100222202202221221211202222122021222012000221202121
N0052 100211120112022222201100002102000110012122002202120122122222220222021212200222112212212210120020212202202002222101220221022221022212112001102121200
N0053 201020212202122212101020222000011121222020222222102201121212211212122221111212011212122110201211221121212221220222212002010102122221220111211000000
N0054 202122210212112021222212222021122020221012001221220111000222001001100111220222222012210021102022122220222020210011222222112022202221012011212122120
N0055 220211001201221220022020121202202222221100212122221102120022222222001122110012121210222122211022212212001212222002011221221110212021221020220022212
N0056 201102222120202112212220020222111220101201021211222111022200202221001202002222122222102001122222222022020122012220100122101222222212101200000220220
N0057 222222112211221211202111022002121222012122212202000022222210221121122011022210021020112002201120210120112212110222002011220222112222101112202211022
N0058 222001210122022201012222010212022201211110021011020212221001221212201212222022222101000201100220202220222221022022201021212120202012012022220202222
N0059 122112120211102022110022022222012220022020202222202021101220202202121221001122222022122221210022220221021001222202022212120122220112220122011002002
N0060 022000011201020202101122000220220120221112222021220220002101221020220221120121012200121212211122020012120222222110122022000221222210220220000202201
N0061 001101012202120200212220212011200201120220020020222222201121220021221222201222220020102212222021202202202222122022212220200220012021202220121220000
N0062 222112110111210101021222221210022221221222101211211121212222212101022210212202021202211102222011000221121222021221112022212221020012011021210011100
N0063 101220221212022221101010222222120001002221011222202222101021120210022110222000112212022022222221101212222200022111122022120022002220202120111110200
N0064 212222022022211202202220202210222202221122021021002122022220012020220220120021201000022202102112011102201121222212202001100202122220222012220200120